[
  {
    "title": "Sea level rise & more extreme weather are predicted and observed",
    "slug": "sea-level-rise-more-extreme-weather",
    "location": {
      "lat": -10.230914669092043,
      "lon": -171.62496365000004
    },
    "metadata": {
      "keywords": "",
      "theme": "Too Much"
    },
    "path": "/narratives/null/vulneable-areas-become-more-vulnerable/sea-level-rise-more-extreme-weather",
    "chapter": {
      "path": "/narratives/null/vulneable-areas-become-more-vulnerable",
      "slug": "vulneable-areas-become-more-vulnerable",
      "chapterType": "Problem",
      "title": "Vulnerable areas become more vulnerable in the future"
    },
    "book": {
      "path": "/narratives/null",
      "slug": null,
      "title": "Coastal Safety"
    },
    "characterPortrait": null,
    "characterName": null
  },
  {
    "title": "The trans-Himalayan mountain desert ",
    "slug": "trans-himalayan-mountian-desert",
    "location": {
      "lat": 29.3799267,
      "lon": 83.12200740000003
    },
    "metadata": {
      "keywords": "desert, mountain",
      "theme": "Too Little"
    },
    "path": "/narratives/melting-glaciers/glaciermelt/trans-himalayan-mountian-desert",
    "chapter": {
      "path": "/narratives/melting-glaciers/glaciermelt",
      "slug": "glaciermelt",
      "chapterType": "Problem",
      "title": "Issues with glacier melt in the Himalayan region"
    },
    "book": {
      "path": "/narratives/melting-glaciers",
      "slug": "melting-glaciers",
      "title": "Melting glaciers"
    },
    "characterPortrait": null,
    "characterName": ""
  },
  {
    "title": "Glaciers melt as main water resources",
    "slug": "glaciers-melt-water-resources",
    "location": {
      "lat": 27.95482915412515,
      "lon": 81.86811905000002
    },
    "metadata": {
      "keywords": "glacier-fed basin",
      "theme": "Too Little"
    },
    "path": "/narratives/melting-glaciers/glaciermelt/glaciers-melt-water-resources",
    "chapter": {
      "path": "/narratives/melting-glaciers/glaciermelt",
      "slug": "glaciermelt",
      "chapterType": "Problem",
      "title": "Issues with glacier melt in the Himalayan region"
    },
    "book": {
      "path": "/narratives/melting-glaciers",
      "slug": "melting-glaciers",
      "title": "Melting glaciers"
    },
    "characterPortrait": null,
    "characterName": ""
  },
  {
    "title": "The melting glaciers",
    "slug": "melting-claciers",
    "location": {
      "lat": 31.103346262081114,
      "lon": 83.7724455
    },
    "metadata": {
      "keywords": "glacier melt, climate change, higher temperature",
      "theme": "Too Little"
    },
    "path": "/narratives/melting-glaciers/glaciermelt/melting-claciers",
    "chapter": {
      "path": "/narratives/melting-glaciers/glaciermelt",
      "slug": "glaciermelt",
      "chapterType": "Problem",
      "title": "Issues with glacier melt in the Himalayan region"
    },
    "book": {
      "path": "/narratives/melting-glaciers",
      "slug": "melting-glaciers",
      "title": "Melting glaciers"
    },
    "characterPortrait": null,
    "characterName": ""
  },
  {
    "title": "Glaciers might dissapear by 2035",
    "slug": "glaciers-might-dissapear-by-2035",
    "location": {
      "lat": 34.1616406,
      "lon": 77.58371110000007
    },
    "metadata": {
      "keywords": "Glacier, melt, Himalayan, vanish, dissappear",
      "theme": "Too Little"
    },
    "path": "/narratives/melting-glaciers/glaciermelt/glaciers-might-dissapear-by-2035",
    "chapter": {
      "path": "/narratives/melting-glaciers/glaciermelt",
      "slug": "glaciermelt",
      "chapterType": "Problem",
      "title": "Issues with glacier melt in the Himalayan region"
    },
    "book": {
      "path": "/narratives/melting-glaciers",
      "slug": "melting-glaciers",
      "title": "Melting glaciers"
    },
    "characterPortrait": null,
    "characterName": ""
  },
  {
    "title": "High rate of glacier melts",
    "slug": "high-rate-of-glacier-melts",
    "location": {
      "lat": 30.7983498,
      "lon": 79.154224
    },
    "metadata": {
      "keywords": "satellite image, glacier melt, climate change, glacier retreat",
      "theme": "Too Little"
    },
    "path": "/narratives/melting-glaciers/glaciermelt/high-rate-of-glacier-melts",
    "chapter": {
      "path": "/narratives/melting-glaciers/glaciermelt",
      "slug": "glaciermelt",
      "chapterType": "Problem",
      "title": "Issues with glacier melt in the Himalayan region"
    },
    "book": {
      "path": "/narratives/melting-glaciers",
      "slug": "melting-glaciers",
      "title": "Melting glaciers"
    },
    "characterPortrait": null,
    "characterName": ""
  },
  {
    "title": "Melting glaciers bring energy uncertainty",
    "slug": "melting-glaciers-bring-energy-uncertainty",
    "location": {
      "lat": 28.5983159,
      "lon": 83.93106230000001
    },
    "metadata": {
      "keywords": "Glacier melt, energy",
      "theme": "Too Little"
    },
    "path": "/narratives/melting-glaciers/impacts-of-glacier-melt-in-the-hamalayan-region/melting-glaciers-bring-energy-uncertainty",
    "chapter": {
      "path": "/narratives/melting-glaciers/impacts-of-glacier-melt-in-the-hamalayan-region",
      "slug": "impacts-of-glacier-melt-in-the-hamalayan-region",
      "chapterType": "Impact",
      "title": "Impacts of glacier melt in the Hamalayan region"
    },
    "book": {
      "path": "/narratives/melting-glaciers",
      "slug": "melting-glaciers",
      "title": "Melting glaciers"
    },
    "characterPortrait": null,
    "characterName": null
  },
  {
    "title": "Timing of water flows",
    "slug": "timing-of-water-flows",
    "location": {
      "lat": 28.5983159,
      "lon": 83.93106230000001
    },
    "metadata": {
      "keywords": "Biodiversity, glacier melt, himalayas",
      "theme": "Too Little"
    },
    "path": "/narratives/melting-glaciers/impacts-of-glacier-melt-in-the-hamalayan-region/timing-of-water-flows",
    "chapter": {
      "path": "/narratives/melting-glaciers/impacts-of-glacier-melt-in-the-hamalayan-region",
      "slug": "impacts-of-glacier-melt-in-the-hamalayan-region",
      "chapterType": "Impact",
      "title": "Impacts of glacier melt in the Hamalayan region"
    },
    "book": {
      "path": "/narratives/melting-glaciers",
      "slug": "melting-glaciers",
      "title": "Melting glaciers"
    },
    "characterPortrait": null,
    "characterName": null
  },
  {
    "title": "Imperfect timing of water flows - drought",
    "slug": "imperfect-timing-of-water-flows-drought",
    "location": {
      "lat": 28.5983159,
      "lon": 83.93106230000001
    },
    "metadata": {
      "keywords": "Water shortage, drought, water spouts",
      "theme": "Too Little"
    },
    "path": "/narratives/melting-glaciers/impacts-of-glacier-melt-in-the-hamalayan-region/imperfect-timing-of-water-flows-drought",
    "chapter": {
      "path": "/narratives/melting-glaciers/impacts-of-glacier-melt-in-the-hamalayan-region",
      "slug": "impacts-of-glacier-melt-in-the-hamalayan-region",
      "chapterType": "Impact",
      "title": "Impacts of glacier melt in the Hamalayan region"
    },
    "book": {
      "path": "/narratives/melting-glaciers",
      "slug": "melting-glaciers",
      "title": "Melting glaciers"
    },
    "characterPortrait": null,
    "characterName": null
  },
  {
    "title": "Imperfect timing of water flows - flood",
    "slug": "imperfect-timing-of-water-flows-flood",
    "location": {
      "lat": 28.394857,
      "lon": 84.124008
    },
    "metadata": {
      "keywords": "Lives, floods, flash floods, snow, glacier melt",
      "theme": "Too Much"
    },
    "path": "/narratives/melting-glaciers/impacts-of-glacier-melt-in-the-hamalayan-region/imperfect-timing-of-water-flows-flood",
    "chapter": {
      "path": "/narratives/melting-glaciers/impacts-of-glacier-melt-in-the-hamalayan-region",
      "slug": "impacts-of-glacier-melt-in-the-hamalayan-region",
      "chapterType": "Impact",
      "title": "Impacts of glacier melt in the Hamalayan region"
    },
    "book": {
      "path": "/narratives/melting-glaciers",
      "slug": "melting-glaciers",
      "title": "Melting glaciers"
    },
    "characterPortrait": null,
    "characterName": null
  },
  {
    "title": "Landslides - glaciers melt induced",
    "slug": "landslides-glaciers-melt-induced",
    "location": {
      "lat": 28.5983159,
      "lon": 83.93106230000001
    },
    "metadata": {
      "keywords": "Lives, landslide, flash flood",
      "theme": "Too Much"
    },
    "path": "/narratives/melting-glaciers/impacts-of-glacier-melt-in-the-hamalayan-region/landslides-glaciers-melt-induced",
    "chapter": {
      "path": "/narratives/melting-glaciers/impacts-of-glacier-melt-in-the-hamalayan-region",
      "slug": "impacts-of-glacier-melt-in-the-hamalayan-region",
      "chapterType": "Impact",
      "title": "Impacts of glacier melt in the Hamalayan region"
    },
    "book": {
      "path": "/narratives/melting-glaciers",
      "slug": "melting-glaciers",
      "title": "Melting glaciers"
    },
    "characterPortrait": null,
    "characterName": null
  },
  {
    "title": "Water scarcity conflicts after deglaciation",
    "slug": "water-scarcity-conflicts-after-deglaciation",
    "location": {
      "lat": 28.5983159,
      "lon": 83.93106230000001
    },
    "metadata": {
      "keywords": "Himalayan rivers, deglaciation, conflict, glacial runoff, agriculture",
      "theme": "Too Little"
    },
    "path": "/narratives/melting-glaciers/impacts-of-glacier-melt-in-the-hamalayan-region/water-scarcity-conflicts-after-deglaciation",
    "chapter": {
      "path": "/narratives/melting-glaciers/impacts-of-glacier-melt-in-the-hamalayan-region",
      "slug": "impacts-of-glacier-melt-in-the-hamalayan-region",
      "chapterType": "Impact",
      "title": "Impacts of glacier melt in the Hamalayan region"
    },
    "book": {
      "path": "/narratives/melting-glaciers",
      "slug": "melting-glaciers",
      "title": "Melting glaciers"
    },
    "characterPortrait": null,
    "characterName": null
  },
  {
    "title": "Artificial Glacier Stupa",
    "slug": "artificial-glacier-stupa",
    "location": {
      "lat": 34.00000000000001,
      "lon": 78
    },
    "metadata": {
      "keywords": "Artificial glaciers",
      "theme": "Too Little"
    },
    "path": "/narratives/melting-glaciers/ice-stupa-as-solution/artificial-glacier-stupa",
    "chapter": {
      "path": "/narratives/melting-glaciers/ice-stupa-as-solution",
      "slug": "ice-stupa-as-solution",
      "chapterType": "Solution",
      "title": "Ice stupa as solution "
    },
    "book": {
      "path": "/narratives/melting-glaciers",
      "slug": "melting-glaciers",
      "title": "Melting glaciers"
    },
    "characterPortrait": {
      "path": "/4410/1516201654-ice_stup_today.jpg",
      "width": 366,
      "height": 206,
      "format": "jpg",
      "size": 16958,
      "alt": null,
      "title": null
    },
    "characterName": null
  }
]