[
  {
    "id": "d049a82a-ecda-41be-863a-e2a6e888258e",
    "title": "Sea level rise & more extreme weather are predicted and observed",
    "location": {
      "lat": 177.6,
      "lon": -7.1
    },
    "metadata": {
      "chapter": "Problem",
      "keyword": "",
      "5p": "Planet",
      "theme": "Too much",
      "book": "Coastal Safety ",
      "page": "page: Climate change"
    },
    "file": "D:\\projecten\\datamanagement\\global\\wateratlas\\stories\\dump\\Climate_change\\Sea level rise & more extreme weather are predicted and observed.txt"
  },
  {
    "id": "e6e995f3-0d17-4d0b-803b-48890da7149a",
    "title": "CO2 production is too high Population density is increasing ",
    "location": {
      "lat": 90.791,
      "lon": 22.493
    },
    "metadata": {
      "chapter": "Problem",
      "keyword": "",
      "5p": "People",
      "theme": "Too much",
      "book": "Coastal Safety ",
      "page": "page: Social factors"
    },
    "file": "D:\\projecten\\datamanagement\\global\\wateratlas\\stories\\dump\\Social_factors\\CO2 production is too high Population density is increasing .txt"
  },
  {
    "id": "baacfaa3-aadc-4bc1-88a8-0a641a3bd3d0",
    "title": "Economic growth in present carbon based approach is unsustainable",
    "location": {
      "lat": 32.0,
      "lon": 32.0
    },
    "metadata": {
      "chapter": "Problem",
      "keyword": "",
      "5p": "Prosperity",
      "theme": "Too much",
      "book": "Coastal Safety ",
      "page": "page: Unsustainable growth"
    },
    "file": "D:\\projecten\\datamanagement\\global\\wateratlas\\stories\\dump\\Unsustainable_growth\\Economic growth in present carbon based approach is unsustainable.txt"
  },
  {
    "id": "d8e6c32f-28cd-4cf6-b50d-de0d0a29adcc",
    "title": "climate adaptation urban delta planning",
    "location": {
      "lat": 113.575,
      "lon": 22.807
    },
    "metadata": {
      "chapter": "Impact",
      "keyword": "",
      "5p": "People",
      "theme": "Too much",
      "book": "Coastal Safety ",
      "page": "page: climate adaptation: urban delta planning"
    },
    "file": "D:\\projecten\\datamanagement\\global\\wateratlas\\stories\\dump\\climate_adaptation_urban_delta_planning\\climate adaptation urban delta planning.txt"
  },
  {
    "id": "85574eb5-f1bb-49f5-b246-8af9fe8720a4",
    "title": "Nature Based Solutions of muddy systems",
    "location": {
      "lat": -6.289,
      "lon": 36.532
    },
    "metadata": {
      "chapter": "Solution: by utilizing Nature Based Flood Defences",
      "keyword": "Saltmarshes and mangrove systems",
      "5p": "Planet",
      "theme": "Too much",
      "book": "Coastal Safety ",
      "page": "page: muddy solutions"
    },
    "file": "D:\\projecten\\datamanagement\\global\\wateratlas\\stories\\dump\\muddy_solutions\\Nature Based Solutions of muddy systems.txt"
  },
  {
    "id": "762cf4f9-3c5c-44c0-b8f0-d8891fd5e30d",
    "title": "Building a stable coastline in Northern Java through an innovative Building with Nature approach",
    "location": {
      "lat": 110.55,
      "lon": -6.782
    },
    "metadata": {
      "chapter": "Solution: by utilizing Nature Based Flood Defences",
      "keyword": "Building with Nature mangrove restoration (Indonesia)",
      "5p": "Planet, People",
      "theme": "Too much",
      "book": "Coastal Safety ",
      "page": "page: muddy solutions"
    },
    "file": "D:\\projecten\\datamanagement\\global\\wateratlas\\stories\\dump\\muddy_solutions\\Building a stable coastline in Northern Java through an innovative Building with Nature approach.txt"
  },
  {
    "id": "33fac730-64c5-4032-93df-a5fe69274470",
    "title": "Nature Based Solutions of sandy systems Sand Engine",
    "location": {
      "lat": 4.1834425,
      "lon": 52.0542343
    },
    "metadata": {
      "chapter": "Solution: by utilizing Nature Based Flood Defences",
      "keyword": "A mega nourishment to supply the Holland coast ",
      "5p": "Planet",
      "theme": "Too much",
      "book": "Coastal Safety ",
      "page": "page: sandy solutions"
    },
    "file": "D:\\projecten\\datamanagement\\global\\wateratlas\\stories\\dump\\sandy_solutions\\Nature Based Solutions of sandy systems Sand Engine.txt"
  },
  {
    "id": "6544840b-0416-481e-9dd8-a88cf573e8fd",
    "title": "Nature Based Solutions of sandy systems",
    "location": {
      "lat": -90.1008,
      "lon": 30.033
    },
    "metadata": {
      "chapter": "Solution: by utilizing Nature Based Flood Defences",
      "keyword": "?",
      "5p": "Planet",
      "theme": "Too much",
      "book": "Coastal Safety ",
      "page": "page: sandy solutions"
    },
    "file": "D:\\projecten\\datamanagement\\global\\wateratlas\\stories\\dump\\sandy_solutions\\Nature Based Solutions of sandy systems.txt"
  },
  {
    "id": "ffc800ff-72c4-440d-a547-09d0ed34b630",
    "title": "Nature Based Solutions using reefs",
    "location": {
      "lat": -61.85,
      "lon": 16.95
    },
    "metadata": {
      "chapter": "Solution: by utilizing Nature Based Flood Defences",
      "keyword": "coral reefs, shellfish reefs, other reefs",
      "5p": "Planet",
      "theme": "Too much",
      "book": "Coastal Safety ",
      "page": "page: reef solutions"
    },
    "file": "D:\\projecten\\datamanagement\\global\\wateratlas\\stories\\dump\\reef_solutions\\Nature Based Solutions using reefs.txt"
  }
]